axi4stream_vip_axi4streampc.sv,systemverilog,xilinx_vip,../../../../home/opt/Xilinx/Vivado/2019.2/data/xilinx_vip/hdl/axi4stream_vip_axi4streampc.sv,incdir="../../../../vcu128-scouting-156-25.srcs/sources_1/ip/vio_0/hdl/verilog"incdir="../../../../vcu128-scouting-156-25.srcs/sources_1/ip/vio_0/hdl"incdir="../../../../vcu128-scouting-156-25.srcs/sources_1/ip/gtwizard_ultrascale_0_vio_0/hdl/verilog"incdir="../../../../vcu128-scouting-156-25.srcs/sources_1/ip/gtwizard_ultrascale_0_vio_0/hdl"
axi_vip_axi4pc.sv,systemverilog,xilinx_vip,../../../../home/opt/Xilinx/Vivado/2019.2/data/xilinx_vip/hdl/axi_vip_axi4pc.sv,incdir="../../../../vcu128-scouting-156-25.srcs/sources_1/ip/vio_0/hdl/verilog"incdir="../../../../vcu128-scouting-156-25.srcs/sources_1/ip/vio_0/hdl"incdir="../../../../vcu128-scouting-156-25.srcs/sources_1/ip/gtwizard_ultrascale_0_vio_0/hdl/verilog"incdir="../../../../vcu128-scouting-156-25.srcs/sources_1/ip/gtwizard_ultrascale_0_vio_0/hdl"
xil_common_vip_pkg.sv,systemverilog,xilinx_vip,../../../../home/opt/Xilinx/Vivado/2019.2/data/xilinx_vip/hdl/xil_common_vip_pkg.sv,incdir="../../../../vcu128-scouting-156-25.srcs/sources_1/ip/vio_0/hdl/verilog"incdir="../../../../vcu128-scouting-156-25.srcs/sources_1/ip/vio_0/hdl"incdir="../../../../vcu128-scouting-156-25.srcs/sources_1/ip/gtwizard_ultrascale_0_vio_0/hdl/verilog"incdir="../../../../vcu128-scouting-156-25.srcs/sources_1/ip/gtwizard_ultrascale_0_vio_0/hdl"
axi4stream_vip_pkg.sv,systemverilog,xilinx_vip,../../../../home/opt/Xilinx/Vivado/2019.2/data/xilinx_vip/hdl/axi4stream_vip_pkg.sv,incdir="../../../../vcu128-scouting-156-25.srcs/sources_1/ip/vio_0/hdl/verilog"incdir="../../../../vcu128-scouting-156-25.srcs/sources_1/ip/vio_0/hdl"incdir="../../../../vcu128-scouting-156-25.srcs/sources_1/ip/gtwizard_ultrascale_0_vio_0/hdl/verilog"incdir="../../../../vcu128-scouting-156-25.srcs/sources_1/ip/gtwizard_ultrascale_0_vio_0/hdl"
axi_vip_pkg.sv,systemverilog,xilinx_vip,../../../../home/opt/Xilinx/Vivado/2019.2/data/xilinx_vip/hdl/axi_vip_pkg.sv,incdir="../../../../vcu128-scouting-156-25.srcs/sources_1/ip/vio_0/hdl/verilog"incdir="../../../../vcu128-scouting-156-25.srcs/sources_1/ip/vio_0/hdl"incdir="../../../../vcu128-scouting-156-25.srcs/sources_1/ip/gtwizard_ultrascale_0_vio_0/hdl/verilog"incdir="../../../../vcu128-scouting-156-25.srcs/sources_1/ip/gtwizard_ultrascale_0_vio_0/hdl"
axi4stream_vip_if.sv,systemverilog,xilinx_vip,../../../../home/opt/Xilinx/Vivado/2019.2/data/xilinx_vip/hdl/axi4stream_vip_if.sv,incdir="../../../../vcu128-scouting-156-25.srcs/sources_1/ip/vio_0/hdl/verilog"incdir="../../../../vcu128-scouting-156-25.srcs/sources_1/ip/vio_0/hdl"incdir="../../../../vcu128-scouting-156-25.srcs/sources_1/ip/gtwizard_ultrascale_0_vio_0/hdl/verilog"incdir="../../../../vcu128-scouting-156-25.srcs/sources_1/ip/gtwizard_ultrascale_0_vio_0/hdl"
axi_vip_if.sv,systemverilog,xilinx_vip,../../../../home/opt/Xilinx/Vivado/2019.2/data/xilinx_vip/hdl/axi_vip_if.sv,incdir="../../../../vcu128-scouting-156-25.srcs/sources_1/ip/vio_0/hdl/verilog"incdir="../../../../vcu128-scouting-156-25.srcs/sources_1/ip/vio_0/hdl"incdir="../../../../vcu128-scouting-156-25.srcs/sources_1/ip/gtwizard_ultrascale_0_vio_0/hdl/verilog"incdir="../../../../vcu128-scouting-156-25.srcs/sources_1/ip/gtwizard_ultrascale_0_vio_0/hdl"
clk_vip_if.sv,systemverilog,xilinx_vip,../../../../home/opt/Xilinx/Vivado/2019.2/data/xilinx_vip/hdl/clk_vip_if.sv,incdir="../../../../vcu128-scouting-156-25.srcs/sources_1/ip/vio_0/hdl/verilog"incdir="../../../../vcu128-scouting-156-25.srcs/sources_1/ip/vio_0/hdl"incdir="../../../../vcu128-scouting-156-25.srcs/sources_1/ip/gtwizard_ultrascale_0_vio_0/hdl/verilog"incdir="../../../../vcu128-scouting-156-25.srcs/sources_1/ip/gtwizard_ultrascale_0_vio_0/hdl"
rst_vip_if.sv,systemverilog,xilinx_vip,../../../../home/opt/Xilinx/Vivado/2019.2/data/xilinx_vip/hdl/rst_vip_if.sv,incdir="../../../../vcu128-scouting-156-25.srcs/sources_1/ip/vio_0/hdl/verilog"incdir="../../../../vcu128-scouting-156-25.srcs/sources_1/ip/vio_0/hdl"incdir="../../../../vcu128-scouting-156-25.srcs/sources_1/ip/gtwizard_ultrascale_0_vio_0/hdl/verilog"incdir="../../../../vcu128-scouting-156-25.srcs/sources_1/ip/gtwizard_ultrascale_0_vio_0/hdl"
xpm_cdc.sv,systemverilog,xpm,../../../../home/opt/Xilinx/Vivado/2019.2/data/ip/xpm/xpm_cdc/hdl/xpm_cdc.sv,incdir="../../../../vcu128-scouting-156-25.srcs/sources_1/ip/vio_0/hdl/verilog"incdir="../../../../vcu128-scouting-156-25.srcs/sources_1/ip/vio_0/hdl"incdir="../../../../vcu128-scouting-156-25.srcs/sources_1/ip/gtwizard_ultrascale_0_vio_0/hdl/verilog"incdir="../../../../vcu128-scouting-156-25.srcs/sources_1/ip/gtwizard_ultrascale_0_vio_0/hdl"
xpm_fifo.sv,systemverilog,xpm,../../../../home/opt/Xilinx/Vivado/2019.2/data/ip/xpm/xpm_fifo/hdl/xpm_fifo.sv,incdir="../../../../vcu128-scouting-156-25.srcs/sources_1/ip/vio_0/hdl/verilog"incdir="../../../../vcu128-scouting-156-25.srcs/sources_1/ip/vio_0/hdl"incdir="../../../../vcu128-scouting-156-25.srcs/sources_1/ip/gtwizard_ultrascale_0_vio_0/hdl/verilog"incdir="../../../../vcu128-scouting-156-25.srcs/sources_1/ip/gtwizard_ultrascale_0_vio_0/hdl"
xpm_memory.sv,systemverilog,xpm,../../../../home/opt/Xilinx/Vivado/2019.2/data/ip/xpm/xpm_memory/hdl/xpm_memory.sv,incdir="../../../../vcu128-scouting-156-25.srcs/sources_1/ip/vio_0/hdl/verilog"incdir="../../../../vcu128-scouting-156-25.srcs/sources_1/ip/vio_0/hdl"incdir="../../../../vcu128-scouting-156-25.srcs/sources_1/ip/gtwizard_ultrascale_0_vio_0/hdl/verilog"incdir="../../../../vcu128-scouting-156-25.srcs/sources_1/ip/gtwizard_ultrascale_0_vio_0/hdl"
xpm_VCOMP.vhd,vhdl,xpm,../../../../home/opt/Xilinx/Vivado/2019.2/data/ip/xpm/xpm_VCOMP.vhd,incdir="../../../../vcu128-scouting-156-25.srcs/sources_1/ip/vio_0/hdl/verilog"incdir="../../../../vcu128-scouting-156-25.srcs/sources_1/ip/vio_0/hdl"incdir="../../../../vcu128-scouting-156-25.srcs/sources_1/ip/gtwizard_ultrascale_0_vio_0/hdl/verilog"incdir="../../../../vcu128-scouting-156-25.srcs/sources_1/ip/gtwizard_ultrascale_0_vio_0/hdl"
vio_0.vhd,vhdl,xil_defaultlib,../../../../vcu128-scouting-156-25.srcs/sources_1/ip/vio_0/sim/vio_0.vhd,incdir="../../../../vcu128-scouting-156-25.srcs/sources_1/ip/vio_0/hdl/verilog"incdir="../../../../vcu128-scouting-156-25.srcs/sources_1/ip/vio_0/hdl"incdir="../../../../vcu128-scouting-156-25.srcs/sources_1/ip/gtwizard_ultrascale_0_vio_0/hdl/verilog"incdir="../../../../vcu128-scouting-156-25.srcs/sources_1/ip/gtwizard_ultrascale_0_vio_0/hdl"
glbl.v,Verilog,xil_defaultlib,glbl.v
